{
    "settings": {
      "documentationRules": {
        "companyName": "Rui Maciel",
        "copyrightText": "Copyright (c) {companyName}. All rights reserved.\nLicensed under the {licenseName} license. See {licenseFile} file in the project root for full license information.",
        "variables": {
          "licenseName": "MIT",
          "licenseFile": "LICENSE"
        }
      }
    }
  }